{
    "parent": "block/piston_head_different_arm_tex",
    "textures": {
        "unsticky": "blocks/piston_top_sticky",
        "side": "blocks/piston_sticky_side",
        "platform": "blocks/piston_top_sticky",
        "arm": "blocks/piston_side"
    }
}
